<svg xmlns="http://www.w3.org/2000/svg" width="18" height="18" viewBox="0 0 18 18">
  <path id="ic_cancel_24px" d="M11,2a9,9,0,1,0,9,9A8.992,8.992,0,0,0,11,2Zm4.5,12.231L14.231,15.5,11,12.269,7.769,15.5,6.5,14.231,9.731,11,6.5,7.769,7.769,6.5,11,9.731,14.231,6.5,15.5,7.769,12.269,11Z" transform="translate(-2 -2)" fill="#F05757" opacity="1"/>
</svg>
